{
  "configVersion": 2,
  "packages": [
    {
      "name": "async",
      "rootUri": "file:///C:/Users/Sabrina/AppData/Local/Pub/Cache/hosted/pub.dartlang.org/async-2.4.0",
      "packageUri": "lib/",
      "languageVersion": "2.0"
    },
    {
      "name": "charcode",
      "rootUri": "file:///C:/Users/Sabrina/AppData/Local/Pub/Cache/hosted/pub.dartlang.org/charcode-1.1.3",
      "packageUri": "lib/",
      "languageVersion": "2.0"
    },
    {
      "name": "collection",
      "rootUri": "file:///C:/Users/Sabrina/AppData/Local/Pub/Cache/hosted/pub.dartlang.org/collection-1.14.12",
      "packageUri": "lib/",
      "languageVersion": "2.0"
    },
    {
      "name": "convert",
      "rootUri": "file:///C:/Users/Sabrina/AppData/Local/Pub/Cache/hosted/pub.dartlang.org/convert-2.1.1",
      "packageUri": "lib/",
      "languageVersion": "1.17"
    },
    {
      "name": "crypto",
      "rootUri": "file:///C:/Users/Sabrina/AppData/Local/Pub/Cache/hosted/pub.dartlang.org/crypto-2.1.4",
      "packageUri": "lib/",
      "languageVersion": "2.1"
    },
    {
      "name": "http",
      "rootUri": "file:///C:/Users/Sabrina/AppData/Local/Pub/Cache/hosted/pub.dartlang.org/http-0.12.0+4",
      "packageUri": "lib/",
      "languageVersion": "2.4"
    },
    {
      "name": "http_parser",
      "rootUri": "file:///C:/Users/Sabrina/AppData/Local/Pub/Cache/hosted/pub.dartlang.org/http_parser-3.1.3",
      "packageUri": "lib/",
      "languageVersion": "2.0"
    },
    {
      "name": "logging",
      "rootUri": "file:///C:/Users/Sabrina/AppData/Local/Pub/Cache/hosted/pub.dartlang.org/logging-0.11.4",
      "packageUri": "lib/",
      "languageVersion": "2.0"
    },
    {
      "name": "matcher",
      "rootUri": "file:///C:/Users/Sabrina/AppData/Local/Pub/Cache/hosted/pub.dartlang.org/matcher-0.12.6",
      "packageUri": "lib/",
      "languageVersion": "2.2"
    },
    {
      "name": "meta",
      "rootUri": "file:///C:/Users/Sabrina/AppData/Local/Pub/Cache/hosted/pub.dartlang.org/meta-1.1.8",
      "packageUri": "lib/",
      "languageVersion": "1.12"
    },
    {
      "name": "path",
      "rootUri": "file:///C:/Users/Sabrina/AppData/Local/Pub/Cache/hosted/pub.dartlang.org/path-1.6.4",
      "packageUri": "lib/",
      "languageVersion": "2.0"
    },
    {
      "name": "pedantic",
      "rootUri": "file:///C:/Users/Sabrina/AppData/Local/Pub/Cache/hosted/pub.dartlang.org/pedantic-1.9.0",
      "packageUri": "lib/",
      "languageVersion": "2.1"
    },
    {
      "name": "quiver",
      "rootUri": "file:///C:/Users/Sabrina/AppData/Local/Pub/Cache/hosted/pub.dartlang.org/quiver-2.1.3",
      "packageUri": "lib/",
      "languageVersion": "2.0"
    },
    {
      "name": "signalr_core",
      "rootUri": "file:///C:/Users/Sabrina/AppData/Local/Pub/Cache/hosted/pub.dartlang.org/signalr_core-1.0.2",
      "packageUri": "lib/",
      "languageVersion": "2.6"
    },
    {
      "name": "source_span",
      "rootUri": "file:///C:/Users/Sabrina/AppData/Local/Pub/Cache/hosted/pub.dartlang.org/source_span-1.6.0",
      "packageUri": "lib/",
      "languageVersion": "2.6"
    },
    {
      "name": "sse_client",
      "rootUri": "file:///C:/Users/Sabrina/AppData/Local/Pub/Cache/hosted/pub.dartlang.org/sse_client-0.0.2",
      "packageUri": "lib/",
      "languageVersion": "2.6"
    },
    {
      "name": "stack_trace",
      "rootUri": "file:///C:/Users/Sabrina/AppData/Local/Pub/Cache/hosted/pub.dartlang.org/stack_trace-1.9.3",
      "packageUri": "lib/",
      "languageVersion": "1.23"
    },
    {
      "name": "stream_channel",
      "rootUri": "file:///C:/Users/Sabrina/AppData/Local/Pub/Cache/hosted/pub.dartlang.org/stream_channel-2.0.0",
      "packageUri": "lib/",
      "languageVersion": "2.0"
    },
    {
      "name": "string_scanner",
      "rootUri": "file:///C:/Users/Sabrina/AppData/Local/Pub/Cache/hosted/pub.dartlang.org/string_scanner-1.0.5",
      "packageUri": "lib/",
      "languageVersion": "2.0"
    },
    {
      "name": "term_glyph",
      "rootUri": "file:///C:/Users/Sabrina/AppData/Local/Pub/Cache/hosted/pub.dartlang.org/term_glyph-1.1.0",
      "packageUri": "lib/",
      "languageVersion": "1.8"
    },
    {
      "name": "tuple",
      "rootUri": "file:///C:/Users/Sabrina/AppData/Local/Pub/Cache/hosted/pub.dartlang.org/tuple-1.0.3",
      "packageUri": "lib/",
      "languageVersion": "2.0"
    },
    {
      "name": "typed_data",
      "rootUri": "file:///C:/Users/Sabrina/AppData/Local/Pub/Cache/hosted/pub.dartlang.org/typed_data-1.1.6",
      "packageUri": "lib/",
      "languageVersion": "2.0"
    },
    {
      "name": "web_socket_channel",
      "rootUri": "file:///C:/Users/Sabrina/AppData/Local/Pub/Cache/hosted/pub.dartlang.org/web_socket_channel-1.1.0",
      "packageUri": "lib/",
      "languageVersion": "2.0"
    },
    {
      "name": "newtify",
      "rootUri": "../",
      "packageUri": "lib/",
      "languageVersion": "2.1"
    }
  ],
  "generated": "2020-07-04T16:53:54.185516Z",
  "generator": "pub",
  "generatorVersion": "2.9.0-14.0.dev.flutter-5c1376615e"
}
